[
  {
    "model": "madnessapp.team",
    "fields": {
      "id": "071810fd-9f12-453f-a67b-9a24c5e5b4fc",
      "name": "Texas A&M",
      "bracket": "West",
      "seed": "7"
    }
  },
  {
    "model": "madnessapp.team",
    "fields": {
      "id": "17497692-61e1-458d-954a-f944984c8636",
      "name": "North Carolina",
      "bracket": "West",
      "seed": "2"
    }
  },
  {
    "model": "madnessapp.team",
    "fields": {
      "id": "1b1e6abd-b141-4e91-8c2a-f86a0298ce02",
      "name": "Virginia",
      "bracket": "South",
      "seed": "1"
    }
  },
  {
    "model": "madnessapp.team",
    "fields": {
      "id": "cf1c4503-aa50-45b8-a5ff-3d8fef75b8f5",
      "name": "Cincinnati",
      "bracket": "South",
      "seed": "2"
    }
  },
  {
    "model": "madnessapp.team",
    "fields": {
      "id": "4638a2ba-240e-451a-8307-78c0745a5632",
      "name": "Tennessee",
      "bracket": "South",
      "seed": "3"
    }
  },
  {
    "model": "madnessapp.team",
    "fields": {
      "id": "6ebd15fd-115c-4f8c-bd96-1dc9f955f722",
      "name": "Arizona",
      "bracket": "South",
      "seed": "4"
    }
  },
  {
    "model": "madnessapp.team",
    "fields": {
      "id": "2addc262-b0ed-4e57-ae9f-92b67b452251",
      "name": "Kentucky",
      "bracket": "South",
      "seed": "5"
    }
  },
  {
    "model": "madnessapp.team",
    "fields": {
      "id": "e9b04857-7e4a-44b6-a54b-f0199e15c210",
      "name": "Miami (FL)",
      "bracket": "South",
      "seed": "6"
    }
  },
  {
    "model": "madnessapp.team",
    "fields": {
      "id": "292942cb-1f0a-4548-a7a1-6d89fe29e721",
      "name": "Nevada",
      "bracket": "South",
      "seed": "7"
    }
  },
  {
    "model": "madnessapp.team",
    "fields": {
      "id": "64899ecf-fd1c-4a0f-80f8-42a629a1647c",
      "name": "Creighton",
      "bracket": "South",
      "seed": "8"
    }
  },
  {
    "model": "madnessapp.team",
    "fields": {
      "id": "6ed9e7ab-48f4-4d12-9a85-154a42c5a282",
      "name": "Kansas State",
      "bracket": "South",
      "seed": "9"
    }
  },
  {
    "model": "madnessapp.team",
    "fields": {
      "id": "dab6596c-a9d9-404b-91d3-ac1c5be40666",
      "name": "Texas",
      "bracket": "South",
      "seed": "10"
    }
  },
  {
    "model": "madnessapp.team",
    "fields": {
      "id": "3a154fda-46af-4cd3-a79b-39ee1f40f4d2",
      "name": "Loyola–Chicago",
      "bracket": "South",
      "seed": "11"
    }
  },
  {
    "model": "madnessapp.team",
    "fields": {
      "id": "f319e572-d635-4548-a7c3-22050f98ced5",
      "name": "Davidson",
      "bracket": "South",
      "seed": "12"
    }
  },
  {
    "model": "madnessapp.team",
    "fields": {
      "id": "e2c4bb52-a58b-47f9-a8a9-f04d73baa157",
      "name": "Buffalo",
      "bracket": "South",
      "seed": "13"
    }
  },
  {
    "model": "madnessapp.team",
    "fields": {
      "id": "4c1769dd-c493-4cad-b4f6-7da3e18417e3",
      "name": "Wright State",
      "bracket": "South",
      "seed": "14"
    }
  },
  {
    "model": "madnessapp.team",
    "fields": {
      "id": "77337f57-1f68-4a50-b98b-e9e8611900d2",
      "name": "Georgia State",
      "bracket": "South",
      "seed": "15"
    }
  },
  {
    "model": "madnessapp.team",
    "fields": {
      "id": "7cc8f3b9-48da-410c-82ba-29a8cbbfc902",
      "name": "UMBC",
      "bracket": "South",
      "seed": "16"
    }
  },
  {
    "model": "madnessapp.team",
    "fields": {
      "id": "1f6a3825-6699-4a11-a360-3bdf7ba6ca98",
      "name": "Xavier",
      "bracket": "West",
      "seed": "1"
    }
  },
  {
    "model": "madnessapp.team",
    "fields": {
      "id": "7d31f069-42cc-4412-aa31-16adeee2abad",
      "name": "Michigan",
      "bracket": "West",
      "seed": "3"
    }
  },
  {
    "model": "madnessapp.team",
    "fields": {
      "id": "d0125c63-3de7-4699-b6c8-7af507d20c75",
      "name": "Gonzaga",
      "bracket": "West",
      "seed": "4"
    }
  },
  {
    "model": "madnessapp.team",
    "fields": {
      "id": "0ce0dff1-00d2-447d-8b4d-aedaa6a17f67",
      "name": "Ohio State",
      "bracket": "West",
      "seed": "5"
    }
  },
  {
    "model": "madnessapp.team",
    "fields": {
      "id": "964ff4c7-6eea-44b0-ab75-2ea60eccd03f",
      "name": "Houston",
      "bracket": "West",
      "seed": "6"
    }
  },
  {
    "model": "madnessapp.team",
    "fields": {
      "id": "59a4ee67-2311-4cbd-aeda-3287f7c98f55",
      "name": "Missouri",
      "bracket": "West",
      "seed": "8"
    }
  },
  {
    "model": "madnessapp.team",
    "fields": {
      "id": "7cd0601c-0568-43a4-bcd6-01ae438ea1c1",
      "name": "Florida State",
      "bracket": "West",
      "seed": "9"
    }
  },
  {
    "model": "madnessapp.team",
    "fields": {
      "id": "684a923a-1431-4b94-8e3d-4b21be60621d",
      "name": "Providence",
      "bracket": "West",
      "seed": "10"
    }
  },
  {
    "model": "madnessapp.team",
    "fields": {
      "id": "e908ecc1-54e6-49e4-849e-26f6bb35d8c7",
      "name": "San Diego State",
      "bracket": "West",
      "seed": "11"
    }
  },
  {
    "model": "madnessapp.team",
    "fields": {
      "id": "428af67f-92f6-4f3e-acb2-4b4692ee6800",
      "name": "South Dakota State",
      "bracket": "West",
      "seed": "12"
    }
  },
  {
    "model": "madnessapp.team",
    "fields": {
      "id": "592ad467-212e-4593-ad41-938d98ba6c67",
      "name": "Montana",
      "bracket": "West",
      "seed": "14"
    }
  },
  {
    "model": "madnessapp.team",
    "fields": {
      "id": "5788e0ab-ec70-4cb3-b575-1a92754f55b3",
      "name": "Lipscomb",
      "bracket": "West",
      "seed": "15"
    }
  },
  {
    "model": "madnessapp.team",
    "fields": {
      "id": "8a3581b8-87c0-4865-8fa9-7c42bb6bf3af",
      "name": "Texas Southern",
      "bracket": "West",
      "seed": "16"
    }
  },
  {
    "model": "madnessapp.team",
    "fields": {
      "id": "d2126e8c-5f5f-4277-a10e-ec67bfa5f8ac",
      "name": "Villanova",
      "bracket": "East",
      "seed": "1"
    }
  },
  {
    "model": "madnessapp.team",
    "fields": {
      "id": "511cb7f1-4025-4eb6-b600-0de19f4f572f",
      "name": "Purdue",
      "bracket": "East",
      "seed": "2"
    }
  },
  {
    "model": "madnessapp.team",
    "fields": {
      "id": "e871f00d-d1d8-4fa3-8ddf-a151bd1bf444",
      "name": "Texas Tech",
      "bracket": "East",
      "seed": "3"
    }
  },
  {
    "model": "madnessapp.team",
    "fields": {
      "id": "df3948d3-6efe-4b00-b446-5ce5c2f264b6",
      "name": "Wichita State",
      "bracket": "East",
      "seed": "4"
    }
  },
  {
    "model": "madnessapp.team",
    "fields": {
      "id": "dfdb6107-7ad1-48d6-9470-1a6123a7d79d",
      "name": "West Virginia",
      "bracket": "East",
      "seed": "5"
    }
  },
  {
    "model": "madnessapp.team",
    "fields": {
      "id": "980cbffc-847d-474b-aee8-3b88363eb356",
      "name": "Florida",
      "bracket": "East",
      "seed": "6"
    }
  },
  {
    "model": "madnessapp.team",
    "fields": {
      "id": "34996867-b2c9-49e0-8d52-2a33753652b7",
      "name": "Arkansas",
      "bracket": "East",
      "seed": "7"
    }
  },
  {
    "model": "madnessapp.team",
    "fields": {
      "id": "3ba66416-0132-4aba-998a-d5494ac3858f",
      "name": "Virginia Tech",
      "bracket": "East",
      "seed": "8"
    }
  },
  {
    "model": "madnessapp.team",
    "fields": {
      "id": "3b82e53d-4433-49dc-ab5a-fcb12d1447c3",
      "name": "Alabama",
      "bracket": "East",
      "seed": "9"
    }
  },
  {
    "model": "madnessapp.team",
    "fields": {
      "id": "06002251-0007-4840-b5e3-c92a39a55af5",
      "name": "Butler",
      "bracket": "East",
      "seed": "10"
    }
  },
  {
    "model": "madnessapp.team",
    "fields": {
      "id": "fa91d5a0-bda1-4b37-94d4-0c40ad0e6b24",
      "name": "St. Bonaventure",
      "bracket": "East",
      "seed": "11"
    }
  },
  {
    "model": "madnessapp.team",
    "fields": {
      "id": "05641322-53de-474e-85b4-ee30e6faa6a9",
      "name": "Murray State",
      "bracket": "East",
      "seed": "12"
    }
  },
  {
    "model": "madnessapp.team",
    "fields": {
      "id": "7b0970c2-f313-4b28-a545-1bd637516b9d",
      "name": "Marshall",
      "bracket": "East",
      "seed": "13"
    }
  },
  {
    "model": "madnessapp.team",
    "fields": {
      "id": "3b2ea4a6-9a9f-4d56-877a-36dc9af4abce",
      "name": "Stephen F. Austin",
      "bracket": "East",
      "seed": "14"
    }
  },
  {
    "model": "madnessapp.team",
    "fields": {
      "id": "a71fea1a-76a7-4fb5-bdf2-a1e397dad429",
      "name": "Cal State Fullerton",
      "bracket": "East",
      "seed": "15"
    }
  },
  {
    "model": "madnessapp.team",
    "fields": {
      "id": "1f928173-fec4-431c-88a8-2c55814beef8",
      "name": "LIU Brooklyn",
      "bracket": "East",
      "seed": "16"
    }
  },
  {
    "model": "madnessapp.team",
    "fields": {
      "id": "929d8649-1eb4-42f8-9edc-a3d455342f91",
      "name": "Radford",
      "bracket": "East",
      "seed": "16"
    }
  },
  {
    "model": "madnessapp.team",
    "fields": {
      "id": "32d3b2be-e31d-4a9a-a4d7-c646c1e130dc",
      "name": "Kansas",
      "bracket": "Midwest",
      "seed": "1"
    }
  },
  {
    "model": "madnessapp.team",
    "fields": {
      "id": "61f29a93-2b27-4052-8ec4-0010cd1d215a",
      "name": "Duke",
      "bracket": "Midwest",
      "seed": "2"
    }
  },
  {
    "model": "madnessapp.team",
    "fields": {
      "id": "3c7bfedf-5a2b-49a1-a17c-95d346eb7829",
      "name": "Michigan State",
      "bracket": "Midwest",
      "seed": "3"
    }
  },
  {
    "model": "madnessapp.team",
    "fields": {
      "id": "40348851-90bf-4025-9069-e1e65a7e1bb5",
      "name": "Auburn",
      "bracket": "Midwest",
      "seed": "4"
    }
  },
  {
    "model": "madnessapp.team",
    "fields": {
      "id": "1a8e7aea-2756-4222-a998-378ead2ecc85",
      "name": "Clemson",
      "bracket": "Midwest",
      "seed": "5"
    }
  },
  {
    "model": "madnessapp.team",
    "fields": {
      "id": "cf5c71c7-cb95-4963-8d13-68ed9b2fb93f",
      "name": "TCU",
      "bracket": "Midwest",
      "seed": "6"
    }
  },
  {
    "model": "madnessapp.team",
    "fields": {
      "id": "62082e4a-bc96-4105-b1f7-7fb7beabdb1a",
      "name": "Rhode Island",
      "bracket": "Midwest",
      "seed": "7"
    }
  },
  {
    "model": "madnessapp.team",
    "fields": {
      "id": "c26dc100-e7aa-4f05-ad2a-5753a74a0c0e",
      "name": "Seton Hall",
      "bracket": "Midwest",
      "seed": "8"
    }
  },
  {
    "model": "madnessapp.team",
    "fields": {
      "id": "8c9afacb-4089-485d-96ab-5e3f187f367c",
      "name": "NC State",
      "bracket": "Midwest",
      "seed": "9"
    }
  },
  {
    "model": "madnessapp.team",
    "fields": {
      "id": "3a1bb48e-0ebd-4a2e-af03-b711796c418b",
      "name": "Oklahoma",
      "bracket": "Midwest",
      "seed": "10"
    }
  },
  {
    "model": "madnessapp.team",
    "fields": {
      "id": "af956e8a-d2bf-4848-942f-af0c797ba931",
      "name": "Arizona State",
      "bracket": "Midwest",
      "seed": "11"
    }
  },
  {
    "model": "madnessapp.team",
    "fields": {
      "id": "0a90e0c2-4457-4b07-bb69-f25846218dcc",
      "name": "Syracuse",
      "bracket": "Midwest",
      "seed": "11"
    }
  },
  {
    "model": "madnessapp.team",
    "fields": {
      "id": "9df51e18-b1f2-417b-b8a6-046cd4ee87c1",
      "name": "New Mexico State",
      "bracket": "Midwest",
      "seed": "12"
    }
  },
  {
    "model": "madnessapp.team",
    "fields": {
      "id": "a0456d3d-3048-4e66-9933-d5f0f0bd1bda",
      "name": "College of Charleston",
      "bracket": "Midwest",
      "seed": "13"
    }
  },
  {
    "model": "madnessapp.team",
    "fields": {
      "id": "61172498-7ca8-4a5f-b4c7-4d3d7b3a017f",
      "name": "Bucknell",
      "bracket": "Midwest",
      "seed": "14"
    }
  },
  {
    "model": "madnessapp.team",
    "fields": {
      "id": "aefa8f8a-61ae-42d2-8369-11b1c7da1e5f",
      "name": "Iona",
      "bracket": "Midwest",
      "seed": "15"
    }
  },
  {
    "model": "madnessapp.team",
    "fields": {
      "id": "26338bc8-ae8e-4647-8e60-cf5d5e280892",
      "name": "Penn",
      "bracket": "Midwest",
      "seed": "16"
    }
  }
]
